[gd_scene load_steps=8 format=2]

[ext_resource path="res://scripts/units/Player/Player.gd" type="Script" id=1]
[ext_resource path="res://Sceens/ShipBase.tscn" type="PackedScene" id=2]
[ext_resource path="res://Sceens/Weapon.tscn" type="PackedScene" id=3]
[ext_resource path="res://assets/Models/TEST2.glb" type="PackedScene" id=4]
[ext_resource path="res://Sceens/trusters.tscn" type="PackedScene" id=6]
[ext_resource path="res://Sceens/MissileLuncher.tscn" type="PackedScene" id=7]
[ext_resource path="res://scripts/systems/sensors/BaseSensor.gd" type="Script" id=8]

[node name="Player" groups=[
"player",
] instance=ExtResource( 2 )]
transform = Transform( 1, 0, 0, 0, 1, 0, 0, 0, 1, 0, 0, 0 )
script = ExtResource( 1 )
max_speed = 2000
turn_speed = 5

[node name="MissileLuncher" parent="." index="0" instance=ExtResource( 7 )]
transform = Transform( 1, 0, 0, 0, 1, 0, 0, 0, 1, -8, -2.25, 3 )

[node name="MissileLuncher2" parent="." index="1" instance=ExtResource( 7 )]
transform = Transform( 1, 0, 0, 0, 1, 0, 0, 0, 1, 8, -2.25, 3 )

[node name="TEST2" parent="." index="3" instance=ExtResource( 4 )]
transform = Transform( -1, 0, -1.50996e-07, 0, 1, 0, 1.50996e-07, 0, -1, 0, 0, 0 )

[node name="Weapon" parent="." index="4" instance=ExtResource( 3 )]
transform = Transform( 1, 0, 0, 0, 1, 0, 0, 0, 1, 0, 0, 9.08888 )
space_override = 1

[node name="plasma" parent="." index="5" instance=ExtResource( 6 )]
transform = Transform( -1.62921e-07, 0, 1, 0, 1, 0, -1, 0, -1.62921e-07, -0.231328, -0.412762, -6.92461 )

[node name="plasma2" parent="." index="6" instance=ExtResource( 6 )]
transform = Transform( -1.62921e-07, 0, 1, 0, 1, 0, -1, 0, -1.62921e-07, 0.497506, 0, -7 )

[node name="sensor" type="RayCast" parent="." index="7"]
transform = Transform( 1, 0, 0, 0, 1, 0, 0, 0, 1, 0, 0.722257, 0 )
enabled = true
cast_to = Vector3( 0, 0, 900000 )
script = ExtResource( 8 )
